Suite/Test/Step Name,Browser,Description,Tag,Start time,End time,Duration,Status
TS_RegressionTest,,,,2021-05-26 22:24:39,2021-05-26 22:24:40,1.257s,ERROR
,,,,,,,
Test Cases/TC01_HTTPRequest,,Verify comment's email from,,2021-05-26 22:24:39,2021-05-26 22:24:40,0.354s,ERROR
