<?xml version="1.0" encoding="UTF-8"?>
<Project>
   <description></description>
   <name>AlamaiAPI</name>
   <tag></tag>
   <UUID>bd9d24d0-9f2e-4419-97ef-69f3de6ad8a7</UUID>
   <migratedVersion>5.9.0</migratedVersion>
   <pageLoadTimeout>0</pageLoadTimeout>
   <projectFileLocation>C:\Users\arief.hakim\Katalon Studio\AlamaiAPI\AlamaiAPI.prj</projectFileLocation>
   <sourceContent>
      <sourceFolderList>
         <sourceFolderConfiguration>
            <url>Include/scripts/groovy</url>
         </sourceFolderConfiguration>
      </sourceFolderList>
      <systemFolderList>
         <systemFolderConfiguration>
            <url>Include/scripts/groovy</url>
         </systemFolderConfiguration>
         <systemFolderConfiguration>
            <url>Include/features</url>
         </systemFolderConfiguration>
         <systemFolderConfiguration>
            <url>Include/config</url>
         </systemFolderConfiguration>
      </systemFolderList>
   </sourceContent>
   <type>WEBSERVICE</type>
</Project>
