{
  "log" : {
    "version" : "1.2",
    "pages" : [ ],
    "entries" : [ {
      "startedDateTime" : "2021-05-26T15:49:15.639Z",
      "request" : {
        "method" : "DELETE",
        "url" : "https://reqres.in/api/users/2",
        "httpVersion" : "",
        "cookies" : [ ],
        "headers" : [ {
          "name" : "Content-Type",
          "value" : "application/json"
        } ],
        "queryString" : [ ],
        "postData" : {
          "mimeType" : "application/json",
          "text" : "",
          "comment" : ""
        },
        "headersSize" : 0,
        "bodySize" : 0,
        "comment" : ""
      },
      "response" : {
        "status" : 204,
        "statusText" : "",
        "httpVersion" : "",
        "cookies" : [ ],
        "headers" : [ {
          "name" : "Server",
          "value" : "cloudflare"
        }, {
          "name" : "CF-RAY",
          "value" : "65582706ab0aa56a-NRT"
        }, {
          "name" : "Access-Control-Allow-Origin",
          "value" : "*"
        }, {
          "name" : "Connection",
          "value" : "keep-alive"
        }, {
          "name" : "Date",
          "value" : "Wed, 26 May 2021 15:49:16 GMT"
        }, {
          "name" : "Via",
          "value" : "1.1 vegur"
        }, {
          "name" : "CF-Cache-Status",
          "value" : "DYNAMIC"
        }, {
          "name" : "Etag",
          "value" : "W/\"2-vyGp6PvFo4RvsFtPoIWeCReyIC8\""
        }, {
          "name" : "NEL",
          "value" : "{\"report_to\":\"cf-nel\",\"max_age\":604800}"
        }, {
          "name" : "Report-To",
          "value" : "{\"endpoints\":[{\"url\":\"https:\\/\\/a.nel.cloudflare.com\\/report\\/v2?s=tnwndhmKGgMXCq%2FPcP9KdaCf%2FW%2BIEI7Rm5TuvKrgIgKkkP5%2B%2BEZdH%2Fy%2Fsg7iQ8noFJgUsD6GZtiQFlWKseXve4ZkINv7wJCH6yr%2Bm05cfZRPy3jKhf%2Bu\"}],\"group\":\"cf-nel\",\"max_age\":604800}"
        }, {
          "name" : "#status#",
          "value" : "HTTP/1.1 204 No Content"
        }, {
          "name" : "Content-Length",
          "value" : "0"
        }, {
          "name" : "alt-svc",
          "value" : "h3-27=\":443\"; ma=86400, h3-28=\":443\"; ma=86400, h3-29=\":443\"; ma=86400"
        }, {
          "name" : "X-Powered-By",
          "value" : "Express"
        }, {
          "name" : "cf-request-id",
          "value" : "0a4af6b8280000a56a368e1000000001"
        }, {
          "name" : "Expect-CT",
          "value" : "max-age=604800, report-uri=\"https://report-uri.cloudflare.com/cdn-cgi/beacon/expect-ct\""
        } ],
        "content" : {
          "size" : 0,
          "mimeType" : "",
          "text" : "",
          "comment" : ""
        },
        "redirectURL" : "",
        "headersSize" : 736,
        "bodySize" : 0,
        "comment" : ""
      },
      "cache" : { },
      "timings" : {
        "comment" : "",
        "connect" : 1884,
        "ssl" : -1,
        "wait" : 0,
        "blocked" : -1,
        "send" : 0,
        "dns" : -1,
        "receive" : 0
      },
      "comment" : "",
      "_katalonRequestInformation" : {
        "name" : "3",
        "testObjectId" : "Object Repository/DeleteUser",
        "harId" : "867c1087-5208-4b66-85a3-97e68119e7fe",
        "reportFolder" : null
      },
      "time" : 1884
    } ],
    "comment" : ""
  }
}